^F:\code\cocos2dx\projects\Dafeiji\proj.win32\Dafeiji.vcxproj
F:\code\cocos2dx\projects\Dafeiji\proj.win32\Debug.win32\Dafeiji.lib
F:\code\cocos2dx\projects\Dafeiji\proj.win32\Debug.win32\Dafeiji.lib
F:\code\cocos2dx\projects\Dafeiji\proj.win32\Debug.win32\Dafeiji.exp
F:\code\cocos2dx\projects\Dafeiji\proj.win32\Debug.win32\Dafeiji.exp
^F:\code\cocos2dx\projects\Dafeiji\proj.win32\Dafeiji.vcxproj
F:\code\cocos2dx\projects\Dafeiji\proj.win32\Debug.win32\Dafeiji.lib
F:\code\cocos2dx\projects\Dafeiji\proj.win32\Debug.win32\Dafeiji.lib
F:\code\cocos2dx\projects\Dafeiji\proj.win32\Debug.win32\Dafeiji.exp
F:\code\cocos2dx\projects\Dafeiji\proj.win32\Debug.win32\Dafeiji.exp
^F:\code\cocos2dx\projects\Dafeiji\proj.win32\Dafeiji.vcxproj
F:\code\cocos2dx\projects\Dafeiji\proj.win32\Debug.win32\Dafeiji.lib
F:\code\cocos2dx\projects\Dafeiji\proj.win32\Debug.win32\Dafeiji.lib
F:\code\cocos2dx\projects\Dafeiji\proj.win32\Debug.win32\Dafeiji.exp
F:\code\cocos2dx\projects\Dafeiji\proj.win32\Debug.win32\Dafeiji.exp
^F:\code\cocos2dx\projects\Dafeiji\proj.win32\Dafeiji.vcxproj
F:\code\cocos2dx\projects\Dafeiji\proj.win32\Debug.win32\Dafeiji.lib
F:\code\cocos2dx\projects\Dafeiji\proj.win32\Debug.win32\Dafeiji.lib
F:\code\cocos2dx\projects\Dafeiji\proj.win32\Debug.win32\Dafeiji.exp
F:\code\cocos2dx\projects\Dafeiji\proj.win32\Debug.win32\Dafeiji.exp
^F:\code\cocos2dx\projects\Dafeiji\proj.win32\Dafeiji.vcxproj
F:\code\cocos2dx\projects\Dafeiji\proj.win32\Debug.win32\Dafeiji.lib
F:\code\cocos2dx\projects\Dafeiji\proj.win32\Debug.win32\Dafeiji.lib
F:\code\cocos2dx\projects\Dafeiji\proj.win32\Debug.win32\Dafeiji.exp
F:\code\cocos2dx\projects\Dafeiji\proj.win32\Debug.win32\Dafeiji.exp
^F:\code\cocos2dx\projects\Dafeiji\proj.win32\Dafeiji.vcxproj
F:\code\cocos2dx\projects\Dafeiji\proj.win32\Debug.win32\Dafeiji.lib
F:\code\cocos2dx\projects\Dafeiji\proj.win32\Debug.win32\Dafeiji.lib
F:\code\cocos2dx\projects\Dafeiji\proj.win32\Debug.win32\Dafeiji.exp
F:\code\cocos2dx\projects\Dafeiji\proj.win32\Debug.win32\Dafeiji.exp
^F:\code\cocos2dx\projects\Dafeiji\proj.win32\Dafeiji.vcxproj
F:\code\cocos2dx\projects\Dafeiji\proj.win32\Debug.win32\Dafeiji.lib
F:\code\cocos2dx\projects\Dafeiji\proj.win32\Debug.win32\Dafeiji.lib
F:\code\cocos2dx\projects\Dafeiji\proj.win32\Debug.win32\Dafeiji.exp
F:\code\cocos2dx\projects\Dafeiji\proj.win32\Debug.win32\Dafeiji.exp
^F:\code\cocos2dx\projects\Dafeiji\proj.win32\Dafeiji.vcxproj
F:\code\cocos2dx\projects\Dafeiji\proj.win32\Debug.win32\Dafeiji.lib
F:\code\cocos2dx\projects\Dafeiji\proj.win32\Debug.win32\Dafeiji.lib
F:\code\cocos2dx\projects\Dafeiji\proj.win32\Debug.win32\Dafeiji.exp
F:\code\cocos2dx\projects\Dafeiji\proj.win32\Debug.win32\Dafeiji.exp
^F:\code\cocos2dx\projects\Dafeiji\proj.win32\Dafeiji.vcxproj
F:\code\cocos2dx\projects\Dafeiji\proj.win32\Debug.win32\Dafeiji.lib
F:\code\cocos2dx\projects\Dafeiji\proj.win32\Debug.win32\Dafeiji.lib
F:\code\cocos2dx\projects\Dafeiji\proj.win32\Debug.win32\Dafeiji.exp
F:\code\cocos2dx\projects\Dafeiji\proj.win32\Debug.win32\Dafeiji.exp
^F:\code\cocos2dx\projects\Dafeiji\proj.win32\Dafeiji.vcxproj
F:\code\cocos2dx\projects\Dafeiji\proj.win32\Debug.win32\Dafeiji.lib
F:\code\cocos2dx\projects\Dafeiji\proj.win32\Debug.win32\Dafeiji.lib
F:\code\cocos2dx\projects\Dafeiji\proj.win32\Debug.win32\Dafeiji.exp
F:\code\cocos2dx\projects\Dafeiji\proj.win32\Debug.win32\Dafeiji.exp
^F:\code\cocos2dx\projects\Dafeiji\proj.win32\Dafeiji.vcxproj
F:\code\cocos2dx\projects\Dafeiji\proj.win32\Debug.win32\Dafeiji.lib
F:\code\cocos2dx\projects\Dafeiji\proj.win32\Debug.win32\Dafeiji.lib
F:\code\cocos2dx\projects\Dafeiji\proj.win32\Debug.win32\Dafeiji.exp
F:\code\cocos2dx\projects\Dafeiji\proj.win32\Debug.win32\Dafeiji.exp
^F:\code\cocos2dx\projects\Dafeiji\proj.win32\Dafeiji.vcxproj
F:\code\cocos2dx\projects\Dafeiji\proj.win32\Debug.win32\Dafeiji.lib
F:\code\cocos2dx\projects\Dafeiji\proj.win32\Debug.win32\Dafeiji.lib
F:\code\cocos2dx\projects\Dafeiji\proj.win32\Debug.win32\Dafeiji.exp
F:\code\cocos2dx\projects\Dafeiji\proj.win32\Debug.win32\Dafeiji.exp
^F:\code\cocos2dx\projects\Dafeiji\proj.win32\Dafeiji.vcxproj
F:\code\cocos2dx\projects\Dafeiji\proj.win32\Debug.win32\Dafeiji.lib
F:\code\cocos2dx\projects\Dafeiji\proj.win32\Debug.win32\Dafeiji.lib
F:\code\cocos2dx\projects\Dafeiji\proj.win32\Debug.win32\Dafeiji.exp
F:\code\cocos2dx\projects\Dafeiji\proj.win32\Debug.win32\Dafeiji.exp
^F:\code\cocos2dx\projects\Dafeiji\proj.win32\Dafeiji.vcxproj
F:\code\cocos2dx\projects\Dafeiji\proj.win32\Debug.win32\Dafeiji.lib
F:\code\cocos2dx\projects\Dafeiji\proj.win32\Debug.win32\Dafeiji.lib
F:\code\cocos2dx\projects\Dafeiji\proj.win32\Debug.win32\Dafeiji.exp
F:\code\cocos2dx\projects\Dafeiji\proj.win32\Debug.win32\Dafeiji.exp
^F:\code\cocos2dx\projects\Dafeiji\proj.win32\Dafeiji.vcxproj
F:\code\cocos2dx\projects\Dafeiji\proj.win32\Debug.win32\Dafeiji.lib
F:\code\cocos2dx\projects\Dafeiji\proj.win32\Debug.win32\Dafeiji.lib
F:\code\cocos2dx\projects\Dafeiji\proj.win32\Debug.win32\Dafeiji.exp
F:\code\cocos2dx\projects\Dafeiji\proj.win32\Debug.win32\Dafeiji.exp
^F:\code\cocos2dx\projects\Dafeiji\proj.win32\Dafeiji.vcxproj
F:\code\cocos2dx\projects\Dafeiji\proj.win32\Debug.win32\Dafeiji.lib
F:\code\cocos2dx\projects\Dafeiji\proj.win32\Debug.win32\Dafeiji.lib
F:\code\cocos2dx\projects\Dafeiji\proj.win32\Debug.win32\Dafeiji.exp
F:\code\cocos2dx\projects\Dafeiji\proj.win32\Debug.win32\Dafeiji.exp
^F:\code\cocos2dx\projects\Dafeiji\proj.win32\Dafeiji.vcxproj
F:\code\cocos2dx\projects\Dafeiji\proj.win32\Debug.win32\Dafeiji.lib
F:\code\cocos2dx\projects\Dafeiji\proj.win32\Debug.win32\Dafeiji.lib
F:\code\cocos2dx\projects\Dafeiji\proj.win32\Debug.win32\Dafeiji.exp
F:\code\cocos2dx\projects\Dafeiji\proj.win32\Debug.win32\Dafeiji.exp
^F:\code\cocos2dx\projects\Dafeiji\proj.win32\Dafeiji.vcxproj
F:\code\cocos2dx\projects\Dafeiji\proj.win32\Debug.win32\Dafeiji.lib
F:\code\cocos2dx\projects\Dafeiji\proj.win32\Debug.win32\Dafeiji.lib
F:\code\cocos2dx\projects\Dafeiji\proj.win32\Debug.win32\Dafeiji.exp
F:\code\cocos2dx\projects\Dafeiji\proj.win32\Debug.win32\Dafeiji.exp
^F:\code\cocos2dx\projects\Dafeiji\proj.win32\Dafeiji.vcxproj
F:\code\cocos2dx\projects\Dafeiji\proj.win32\Debug.win32\Dafeiji.lib
F:\code\cocos2dx\projects\Dafeiji\proj.win32\Debug.win32\Dafeiji.lib
F:\code\cocos2dx\projects\Dafeiji\proj.win32\Debug.win32\Dafeiji.exp
F:\code\cocos2dx\projects\Dafeiji\proj.win32\Debug.win32\Dafeiji.exp
^F:\code\cocos2dx\projects\Dafeiji\proj.win32\Dafeiji.vcxproj
F:\code\cocos2dx\projects\Dafeiji\proj.win32\Debug.win32\Dafeiji.lib
F:\code\cocos2dx\projects\Dafeiji\proj.win32\Debug.win32\Dafeiji.lib
F:\code\cocos2dx\projects\Dafeiji\proj.win32\Debug.win32\Dafeiji.exp
F:\code\cocos2dx\projects\Dafeiji\proj.win32\Debug.win32\Dafeiji.exp
^F:\code\cocos2dx\projects\Dafeiji\proj.win32\Dafeiji.vcxproj
F:\code\cocos2dx\projects\Dafeiji\proj.win32\Debug.win32\Dafeiji.lib
F:\code\cocos2dx\projects\Dafeiji\proj.win32\Debug.win32\Dafeiji.lib
F:\code\cocos2dx\projects\Dafeiji\proj.win32\Debug.win32\Dafeiji.exp
F:\code\cocos2dx\projects\Dafeiji\proj.win32\Debug.win32\Dafeiji.exp
^F:\code\cocos2dx\projects\Dafeiji\proj.win32\Dafeiji.vcxproj
F:\code\cocos2dx\projects\Dafeiji\proj.win32\Debug.win32\Dafeiji.lib
F:\code\cocos2dx\projects\Dafeiji\proj.win32\Debug.win32\Dafeiji.lib
F:\code\cocos2dx\projects\Dafeiji\proj.win32\Debug.win32\Dafeiji.exp
F:\code\cocos2dx\projects\Dafeiji\proj.win32\Debug.win32\Dafeiji.exp
^F:\code\cocos2dx\projects\Dafeiji\proj.win32\Dafeiji.vcxproj
F:\code\cocos2dx\projects\Dafeiji\proj.win32\Debug.win32\Dafeiji.lib
F:\code\cocos2dx\projects\Dafeiji\proj.win32\Debug.win32\Dafeiji.lib
F:\code\cocos2dx\projects\Dafeiji\proj.win32\Debug.win32\Dafeiji.exp
F:\code\cocos2dx\projects\Dafeiji\proj.win32\Debug.win32\Dafeiji.exp
^F:\code\cocos2dx\projects\Dafeiji\proj.win32\Dafeiji.vcxproj
F:\code\cocos2dx\projects\Dafeiji\proj.win32\Debug.win32\Dafeiji.lib
F:\code\cocos2dx\projects\Dafeiji\proj.win32\Debug.win32\Dafeiji.lib
F:\code\cocos2dx\projects\Dafeiji\proj.win32\Debug.win32\Dafeiji.exp
F:\code\cocos2dx\projects\Dafeiji\proj.win32\Debug.win32\Dafeiji.exp
^F:\code\cocos2dx\projects\Dafeiji\proj.win32\Dafeiji.vcxproj
F:\code\cocos2dx\projects\Dafeiji\proj.win32\Debug.win32\Dafeiji.lib
F:\code\cocos2dx\projects\Dafeiji\proj.win32\Debug.win32\Dafeiji.lib
F:\code\cocos2dx\projects\Dafeiji\proj.win32\Debug.win32\Dafeiji.exp
F:\code\cocos2dx\projects\Dafeiji\proj.win32\Debug.win32\Dafeiji.exp
^F:\code\cocos2dx\projects\Dafeiji\proj.win32\Dafeiji.vcxproj
F:\code\cocos2dx\projects\Dafeiji\proj.win32\Debug.win32\Dafeiji.lib
F:\code\cocos2dx\projects\Dafeiji\proj.win32\Debug.win32\Dafeiji.lib
F:\code\cocos2dx\projects\Dafeiji\proj.win32\Debug.win32\Dafeiji.exp
F:\code\cocos2dx\projects\Dafeiji\proj.win32\Debug.win32\Dafeiji.exp
^F:\code\cocos2dx\projects\Dafeiji\proj.win32\Dafeiji.vcxproj
F:\code\cocos2dx\projects\Dafeiji\proj.win32\Debug.win32\Dafeiji.lib
F:\code\cocos2dx\projects\Dafeiji\proj.win32\Debug.win32\Dafeiji.lib
F:\code\cocos2dx\projects\Dafeiji\proj.win32\Debug.win32\Dafeiji.exp
F:\code\cocos2dx\projects\Dafeiji\proj.win32\Debug.win32\Dafeiji.exp
^F:\code\cocos2dx\projects\Dafeiji\proj.win32\Dafeiji.vcxproj
F:\code\cocos2dx\projects\Dafeiji\proj.win32\Debug.win32\Dafeiji.lib
F:\code\cocos2dx\projects\Dafeiji\proj.win32\Debug.win32\Dafeiji.lib
F:\code\cocos2dx\projects\Dafeiji\proj.win32\Debug.win32\Dafeiji.exp
F:\code\cocos2dx\projects\Dafeiji\proj.win32\Debug.win32\Dafeiji.exp
^F:\code\cocos2dx\projects\Dafeiji\proj.win32\Dafeiji.vcxproj
F:\code\cocos2dx\projects\Dafeiji\proj.win32\Debug.win32\Dafeiji.lib
F:\code\cocos2dx\projects\Dafeiji\proj.win32\Debug.win32\Dafeiji.lib
F:\code\cocos2dx\projects\Dafeiji\proj.win32\Debug.win32\Dafeiji.exp
F:\code\cocos2dx\projects\Dafeiji\proj.win32\Debug.win32\Dafeiji.exp
^F:\code\cocos2dx\projects\Dafeiji\proj.win32\Dafeiji.vcxproj
F:\code\cocos2dx\projects\Dafeiji\proj.win32\Debug.win32\Dafeiji.lib
F:\code\cocos2dx\projects\Dafeiji\proj.win32\Debug.win32\Dafeiji.lib
F:\code\cocos2dx\projects\Dafeiji\proj.win32\Debug.win32\Dafeiji.exp
F:\code\cocos2dx\projects\Dafeiji\proj.win32\Debug.win32\Dafeiji.exp
^F:\code\cocos2dx\projects\Dafeiji\proj.win32\Dafeiji.vcxproj
F:\code\cocos2dx\projects\Dafeiji\proj.win32\Debug.win32\Dafeiji.lib
F:\code\cocos2dx\projects\Dafeiji\proj.win32\Debug.win32\Dafeiji.lib
F:\code\cocos2dx\projects\Dafeiji\proj.win32\Debug.win32\Dafeiji.exp
F:\code\cocos2dx\projects\Dafeiji\proj.win32\Debug.win32\Dafeiji.exp
