^F:\CODE\COCOS2DX\PROJECTS\DAFEIJI\PROJ.WIN32\DEBUG.WIN32\APPDELEGATE.OBJ|F:\CODE\COCOS2DX\PROJECTS\DAFEIJI\PROJ.WIN32\DEBUG.WIN32\GAME.RES|F:\CODE\COCOS2DX\PROJECTS\DAFEIJI\PROJ.WIN32\DEBUG.WIN32\GAMEOVERSCENE.OBJ|F:\CODE\COCOS2DX\PROJECTS\DAFEIJI\PROJ.WIN32\DEBUG.WIN32\GAMESCENE.OBJ|F:\CODE\COCOS2DX\PROJECTS\DAFEIJI\PROJ.WIN32\DEBUG.WIN32\HELLOWORLDSCENE.OBJ|F:\CODE\COCOS2DX\PROJECTS\DAFEIJI\PROJ.WIN32\DEBUG.WIN32\LIBBOX2D.LIB|F:\CODE\COCOS2DX\PROJECTS\DAFEIJI\PROJ.WIN32\DEBUG.WIN32\LIBCOCOS2D.LIB|F:\CODE\COCOS2DX\PROJECTS\DAFEIJI\PROJ.WIN32\DEBUG.WIN32\LIBSPINE.LIB|F:\CODE\COCOS2DX\PROJECTS\DAFEIJI\PROJ.WIN32\DEBUG.WIN32\MAIN.OBJ
C:\WINDOWS\GLOBALIZATION\SORTING\SORTDEFAULT.NLS
C:\PROGRAM FILES (X86)\WINDOWS KITS\8.0\LIB\WIN8\UM\X86\OPENGL32.LIB
F:\CODE\COCOS2DX\PROJECTS\DAFEIJI\PROJ.WIN32\DEBUG.WIN32\GLEW32.LIB
F:\CODE\COCOS2DX\PROJECTS\DAFEIJI\PROJ.WIN32\DEBUG.WIN32\LIBZLIB.LIB
F:\CODE\COCOS2DX\PROJECTS\DAFEIJI\PROJ.WIN32\DEBUG.WIN32\LIBPNG.LIB
F:\CODE\COCOS2DX\PROJECTS\DAFEIJI\PROJ.WIN32\DEBUG.WIN32\LIBJPEG.LIB
F:\CODE\COCOS2DX\PROJECTS\DAFEIJI\PROJ.WIN32\DEBUG.WIN32\LIBTIFF.LIB
F:\CODE\COCOS2DX\PROJECTS\DAFEIJI\PROJ.WIN32\DEBUG.WIN32\LIBWEBP.LIB
F:\CODE\COCOS2DX\PROJECTS\DAFEIJI\PROJ.WIN32\DEBUG.WIN32\LIBICONV.LIB
F:\CODE\COCOS2DX\PROJECTS\DAFEIJI\PROJ.WIN32\DEBUG.WIN32\GLFW3.LIB
F:\CODE\COCOS2DX\PROJECTS\DAFEIJI\PROJ.WIN32\DEBUG.WIN32\FREETYPE250.LIB
C:\PROGRAM FILES (X86)\WINDOWS KITS\8.0\LIB\WIN8\UM\X86\WINMM.LIB
C:\PROGRAM FILES (X86)\WINDOWS KITS\8.0\LIB\WIN8\UM\X86\WS2_32.LIB
F:\CODE\COCOS2DX\PROJECTS\DAFEIJI\PROJ.WIN32\DEBUG.WIN32\LIBCHIPMUNK.LIB
F:\CODE\COCOS2DX\PROJECTS\DAFEIJI\PROJ.WIN32\DEBUG.WIN32\LIBBOX2D.LIB
F:\CODE\COCOS2DX\PROJECTS\DAFEIJI\PROJ.WIN32\DEBUG.WIN32\LIBSPINE.LIB
C:\PROGRAM FILES (X86)\WINDOWS KITS\8.0\LIB\WIN8\UM\X86\KERNEL32.LIB
C:\PROGRAM FILES (X86)\WINDOWS KITS\8.0\LIB\WIN8\UM\X86\USER32.LIB
C:\PROGRAM FILES (X86)\WINDOWS KITS\8.0\LIB\WIN8\UM\X86\GDI32.LIB
C:\PROGRAM FILES (X86)\WINDOWS KITS\8.0\LIB\WIN8\UM\X86\WINSPOOL.LIB
C:\PROGRAM FILES (X86)\WINDOWS KITS\8.0\LIB\WIN8\UM\X86\COMDLG32.LIB
C:\PROGRAM FILES (X86)\WINDOWS KITS\8.0\LIB\WIN8\UM\X86\ADVAPI32.LIB
C:\PROGRAM FILES (X86)\WINDOWS KITS\8.0\LIB\WIN8\UM\X86\SHELL32.LIB
C:\PROGRAM FILES (X86)\WINDOWS KITS\8.0\LIB\WIN8\UM\X86\OLE32.LIB
C:\PROGRAM FILES (X86)\WINDOWS KITS\8.0\LIB\WIN8\UM\X86\OLEAUT32.LIB
C:\PROGRAM FILES (X86)\WINDOWS KITS\8.0\LIB\WIN8\UM\X86\UUID.LIB
C:\PROGRAM FILES (X86)\WINDOWS KITS\8.0\LIB\WIN8\UM\X86\ODBC32.LIB
C:\PROGRAM FILES (X86)\WINDOWS KITS\8.0\LIB\WIN8\UM\X86\ODBCCP32.LIB
F:\CODE\COCOS2DX\PROJECTS\DAFEIJI\PROJ.WIN32\DEBUG.WIN32\GAME.RES
F:\CODE\COCOS2DX\PROJECTS\DAFEIJI\PROJ.WIN32\DEBUG.WIN32\APPDELEGATE.OBJ
F:\CODE\COCOS2DX\PROJECTS\DAFEIJI\PROJ.WIN32\DEBUG.WIN32\GAMEOVERSCENE.OBJ
F:\CODE\COCOS2DX\PROJECTS\DAFEIJI\PROJ.WIN32\DEBUG.WIN32\GAMESCENE.OBJ
F:\CODE\COCOS2DX\PROJECTS\DAFEIJI\PROJ.WIN32\DEBUG.WIN32\HELLOWORLDSCENE.OBJ
F:\CODE\COCOS2DX\PROJECTS\DAFEIJI\PROJ.WIN32\DEBUG.WIN32\MAIN.OBJ
F:\CODE\COCOS2DX\PROJECTS\DAFEIJI\PROJ.WIN32\DEBUG.WIN32\LIBCOCOS2D.LIB
C:\WINDOWS\SYSTEM32\TZRES.DLL
E:\PROGRAM FILES\MICROSOFT VISUAL STUDIO 11.0\VC\LIB\MSVCPRTD.LIB
E:\PROGRAM FILES\MICROSOFT VISUAL STUDIO 11.0\VC\LIB\MSVCRTD.LIB
E:\PROGRAM FILES\MICROSOFT VISUAL STUDIO 11.0\VC\LIB\OLDNAMES.LIB
